{
    "module": "PPCONFIG",
    "title": "Flexible configuration for Extender.",
    "description": "An easy to use, flexible, configuration engine for Extender.",
    "sage": {
        "version": 2019,
        "product_update": 3.0,
        "edition": "Premium"
    },
    "extender": {
        "version": 2019,
        "product_update": 7.03,
        "edition": "Developer"
    },
    "programs": [
        "*"
    ],
    "views": [
        "*"
    ],
    "screens": [
        "*"
    ],
    "workflows": [],
    "access": "public",
    "visibility": "public",
    "pricing": {
    },
    "email": "chris@poplars.dev"
}
